<svg width="0" height="0" class="hidden">
  <symbol xmlns="http://www.w3.org/2000/svg" viewBox="0 0 64 64" id="trash-can-1">
    <title>Trash Can</title>
    <desc>A flat styled icon from Orion Icon Library.</desc>
    <path data-name="layer2"
    d="M52.683 10l-2.928 47.12A5.02 5.02 0 0 1 44.874 62H19.5a4.974 4.974 0 0 1-4.879-4.88L11.732 10z"
    fill="#c0d4f7" style="fill:var(--layer2, #c0d4f7)"></path>
    <path data-name="layer1" d="M32.207 55a1 1 0 0 1-1-1V18a1 1 0 0 1 2 0v36a1 1 0 0 1-1 1zm-8.001 0a1 1 0 0 1-1-.945l-2-36a1 1 0 1 1 2-.111l2 36A1 1 0 0 1 24.262 55zm16.002 0h-.057a1 1 0 0 1-.943-1.054l2-36a1 1 0 1 1 2 .111l-2 36a1 1 0 0 1-1 .943z"
    fill="#7c89ad" style="fill:var(--layer1, #7c89ad)"></path>
    <path data-name="opacity" fill="#000064" opacity=".15" d="M52.683 10H11.732l2.416 39.431 38.476-38.477.059-.954z"></path>
    <path data-name="layer1" d="M57 11H7.413a1 1 0 0 1 0-2H57a1 1 0 0 1 0 2z"
    fill="#7c89ad" style="fill:var(--layer1, #7c89ad)"></path>
    <path data-name="layer1" d="M42.207 11a1 1 0 0 1-1-1V5.9A2.907 2.907 0 0 0 38.3 3H26.111a2.907 2.907 0 0 0-2.9 2.9V10a1 1 0 0 1-2 0V5.9a4.91 4.91 0 0 1 4.9-4.9H38.3a4.91 4.91 0 0 1 4.9 4.9V10a1 1 0 0 1-.993 1z"
    fill="#7c89ad" style="fill:var(--layer1, #7c89ad)"></path>
  </symbol>
  <symbol xmlns="http://www.w3.org/2000/svg" viewBox="0 0 64 64" id="pay-by-card-1">
    <title>Pay by Card</title>
    <desc>A color styled icon from Orion Icon Library.</desc>
    <path data-name="layer3"
    d="M14 2a2 2 0 0 0-2 2v38a2 2 0 0 0 2 2h15.9a11.8 11.8 0 0 1 .2-4.9l-8.6-8.6a5 5 0 0 1 7-7L30 25V2z"
    fill="#78d1f4" style="fill:var(--layer3, #78d1f4)"></path>
    <path data-name="opacity" d="M30.1 39.1l-8.6-8.6a4.9 4.9 0 0 1-1.5-3.6l-.7.6a5 5 0 0 0 0 7l8.6 8.6a7.4 7.4 0 0 0-.2.9h2.1a11.8 11.8 0 0 1 .3-4.9z"
    fill="#000064" opacity=".15"></path>
    <path data-name="layer2" d="M40 4a2 2 0 0 0-2-2h-8v23l10 10z" fill="#7b8baf"
    style="fill:var(--layer2, #7b8baf)"></path>
    <path data-name="layer1" d="M48.7 28.7L40 20v15L30 25l-1.5-1.5a5 5 0 0 0-7 7l8.6 8.6a11.8 11.8 0 0 0-.2 4.9H22a20 20 0 0 0 3.3 11.5C28.1 60 28 61.3 28 62h24s.1-13.4.1-22c-.1-5.8-.9-8.9-3.4-11.3z"
    fill="#ffd4c7" style="fill:var(--layer1, #ffd4c7)"></path>
    <path data-name="opacity" d="M29 44h-7a20 20 0 0 0 3.3 11.5C28.1 60 28 61.3 28 62h8v-9c-4-1-7-9-7-9z"
    fill="#000064" opacity=".15"></path>
    <path data-name="stroke" d="M40 20l8.8 8.7C51.2 31.1 52 34.2 52 40c0 8.6-.1 22-.1 22M22 44a20 20 0 0 0 3.3 11.5C28.1 60 28 61.3 28 62m1.8-18H14a2 2 0 0 1-2-2V4a2 2 0 0 1 2-2h24a2 2 0 0 1 2 2v31M30 2v23"
    fill="none" stroke="#2e4369" stroke-linecap="round" stroke-linejoin="round"
    stroke-width="2" style="stroke:var(--stroke, #2e4369)"></path>
    <path data-name="stroke" d="M44.1 39.1L28.4 23.5a5 5 0 0 0-7 0 5 5 0 0 0 0 7l8.6 8.6s-2.6 8 6 14.9"
    fill="none" stroke="#2e4369" stroke-linecap="round" stroke-linejoin="round"
    stroke-width="2" style="stroke:var(--stroke, #2e4369)"></path>
  </symbol>
  <symbol xmlns="http://www.w3.org/2000/svg" viewBox="0 0 64 64" id="bank-cards-1">
    <title>Bank Cards</title>
    <desc>A color styled icon from Orion Icon Library.</desc>
    <rect data-name="layer3"
    x="2" y="29" width="48" height="30" rx="2.4" ry="2.4" fill="#69c492" style="fill:var(--layer3, #69c492)"></rect>
    <path data-name="layer2" d="M53.1 6.6A2.4 2.4 0 0 0 50 5.2L9.6 19.9A2.4 2.4 0 0 0 8.2 23l1.9 5.2L55 11.8z"
    fill="#7b8baf" style="fill:var(--layer2, #7b8baf)"></path>
    <path data-name="layer1" d="M61.9 30.6L55 11.8 10 28.2l.3.8h37.3a2.4 2.4 0 0 1 2.4 2.4v6l10.4-3.8a2.4 2.4 0 0 0 1.5-3z"
    fill="#78d1f4" style="fill:var(--layer1, #78d1f4)"></path>
    <path data-name="opacity" d="M50 31.4a2.4 2.4 0 0 0-2.4-2.4H4.4A2.4 2.4 0 0 0 2 31.4V37h48z"
    fill="#000064" opacity=".15"></path>
    <path data-name="stroke" d="M10.3 29l-2.2-6.1a2.4 2.4 0 0 1 1.4-3.1L50.1 5.1a2.4 2.4 0 0 1 3.1 1.4l8.7 24a2.4 2.4 0 0 1-1.4 3.1L50 37.4m-39.9-9.2L55 11.8m-8.3 9.8l4.5-1.6"
    fill="none" stroke="#2e4369" stroke-linecap="round" stroke-linejoin="round"
    stroke-width="2" style="stroke:var(--stroke, #2e4369)"></path>
    <rect data-name="stroke" x="2" y="29" width="48" height="30" rx="2.4"
    ry="2.4" fill="none" stroke="#2e4369" stroke-linecap="round" stroke-linejoin="round"
    stroke-width="2" style="stroke:var(--stroke, #2e4369)"></rect>
    <path data-name="stroke" fill="none" stroke="#2e4369" stroke-linecap="round"
    stroke-linejoin="round" stroke-width="2" d="M10 43h14m12-6h6M10 51h2m8 0h2m8 0h2m8 0h2"
    style="stroke:var(--stroke, #2e4369)"></path>
  </symbol>
  <symbol xmlns="http://www.w3.org/2000/svg" viewBox="0 0 64 64" id="bill-1">
    <title>Bill</title>
    <desc>A color styled icon from Orion Icon Library.</desc>
    <path data-name="layer1"
    fill="#9cc4a4" d="M2 14h60v36H2z" style="fill:var(--layer1, #9cc4a4)"></path>
    <circle data-name="opacity" cx="32" cy="32" r="8" fill="#000064"
    opacity=".15"></circle>
    <path d="M2 40v10h10A9.7 9.7 0 0 0 2 40zm10-26H2v10a10 10 0 0 0 10-10zm40 36h10V40a9.7 9.7 0 0 0-10 10zm0-36a10 10 0 0 0 10 10V14z"
    fill="#fff" data-name="opacity" opacity=".25"></path>
    <path data-name="stroke" fill="none" stroke="#2e4369" stroke-linecap="round"
    stroke-linejoin="round" stroke-width="2" d="M2 14h60v36H2z" style="stroke:var(--stroke, #2e4369)"></path>
    <circle data-name="stroke" cx="32" cy="32" r="8" fill="none" stroke="#2e4369"
    stroke-linecap="round" stroke-linejoin="round" stroke-width="2" style="stroke:var(--stroke, #2e4369)"></circle>
    <path data-name="stroke" fill="none" stroke="#2e4369" stroke-linecap="round"
    stroke-linejoin="round" stroke-width="2" d="M12 32h4m32 0h4M12 14A10 10 0 0 1 2 24m60 0a10 10 0 0 1-10-10M2 40a10 10 0 0 1 10 10m40 0a10 10 0 0 1 10-10"
    style="stroke:var(--stroke, #2e4369)"></path>
  </symbol>
  <symbol xmlns="http://www.w3.org/2000/svg" viewBox="0 0 64 64" id="clear-shopping-cart-1">
    <title>Clear Shopping Cart</title>
    <desc>A color styled icon from Orion Icon Library.</desc>
    <circle data-name="layer3"
    cx="20" cy="54" r="4" fill="#a6b1c9" style="fill:var(--layer3, #a6b1c9)"></circle>
    <circle data-name="layer3" cx="46" cy="54" r="4" fill="#a6b1c9"
    style="fill:var(--layer3, #a6b1c9)"></circle>
    <circle data-name="layer2" cx="46" cy="22" r="16" fill="#f45d5d"
    style="fill:var(--layer2, #f45d5d)"></circle>
    <path data-name="layer1" d="M30 22H12l6 24h32l3.2-9.7A16 16 0 0 1 30 22z"
    fill="#c3d6f9" style="fill:var(--layer1, #c3d6f9)"></path>
    <path data-name="opacity" d="M53.2 36.3A16 16 0 0 1 30 22h-3.5a16 16 0 0 0 26.2 15.9l.5-1.6z"
    fill="#000064" opacity=".15"></path>
    <path data-name="stroke" fill="none" stroke="#2e4369" stroke-linecap="round"
    stroke-linejoin="round" stroke-width="2" d="M30 22H12M2 6h6l10 40h32l3.2-9.7"
    style="stroke:var(--stroke, #2e4369)"></path>
    <circle data-name="stroke" cx="20" cy="54" r="4" fill="none" stroke="#2e4369"
    stroke-linecap="round" stroke-linejoin="round" stroke-width="2" style="stroke:var(--stroke, #2e4369)"></circle>
    <circle data-name="stroke" cx="46" cy="54" r="4" fill="none"
    stroke="#2e4369" stroke-linecap="round" stroke-linejoin="round" stroke-width="2"
    style="stroke:var(--stroke, #2e4369)"></circle>
    <circle data-name="stroke" cx="46" cy="22" r="16" fill="none"
    stroke="#2e4369" stroke-linecap="round" stroke-linejoin="round" stroke-width="2"
    style="stroke:var(--stroke, #2e4369)"></circle>
    <path data-name="stroke" fill="none" stroke="#2e4369" stroke-linecap="round"
    stroke-linejoin="round" stroke-width="2" d="M52 16L40 28m0-12l12 12" style="stroke:var(--stroke, #2e4369)"></path>
  </symbol>
  <symbol xmlns="http://www.w3.org/2000/svg" viewBox="0 0 64 64" id="buy-1">
    <title>Buy</title>
    <desc>A color styled icon from Orion Icon Library.</desc>
    <path data-name="layer2"
    fill="#44d88d" d="M22 50h32l8-24H16l6 24z" style="fill:var(--layer2, #44d88d)"></path>
    <circle data-name="layer1" cx="24" cy="58" r="4" fill="#a6b1c9"
    style="fill:var(--layer1, #a6b1c9)"></circle>
    <circle data-name="layer1" cx="50" cy="58" r="4" fill="#a6b1c9"
    style="fill:var(--layer1, #a6b1c9)"></circle>
    <path data-name="opacity" fill="#000064" opacity=".15" d="M28 46l-5-20h-7l6 24h32l1.3-4H28z"></path>
    <path data-name="stroke" fill="none" stroke="#2e4369" stroke-linecap="round"
    stroke-linejoin="round" stroke-width="2" d="M28 26H16M2 10h10l10 40h32l8-24H48"
    style="stroke:var(--stroke, #2e4369)"></path>
    <circle data-name="stroke" cx="24" cy="58" r="4" fill="none" stroke="#2e4369"
    stroke-linecap="round" stroke-linejoin="round" stroke-width="2" style="stroke:var(--stroke, #2e4369)"></circle>
    <circle data-name="stroke" cx="50" cy="58" r="4" fill="none"
    stroke="#2e4369" stroke-linecap="round" stroke-linejoin="round" stroke-width="2"
    style="stroke:var(--stroke, #2e4369)"></circle>
    <path data-name="stroke" fill="none" stroke="#2e4369" stroke-linecap="round"
    stroke-linejoin="round" stroke-width="2" d="M38 2v23M28 15l10 10 10-10"
    style="stroke:var(--stroke, #2e4369)"></path>
  </symbol>
  <symbol xmlns="http://www.w3.org/2000/svg" viewBox="0 0 64 64" id="download-manual-1">
    <title>Download Manual</title>
    <desc>A color styled icon from Orion Icon Library.</desc>
    <path data-name="layer2"
    d="M13 7v38a5 5 0 0 0 5 5h33V12H18a5 5 0 0 1-5-5" fill="#81dc89" style="fill:var(--layer2, #81dc89)"></path>
    <path data-name="layer1" d="M47 12V2H18a5 5 0 0 0 0 10z" fill="#fff"
    style="fill:var(--layer1, #fff)"></path>
    <path data-name="opacity" d="M18 2a5 5 0 0 0-5 5 4.9 4.9 0 0 0 .3 1.5A5 5 0 0 1 18 5h29V2zm15 48V34.8L20.8 50H33z"
    fill="#000064" opacity=".15"></path>
    <path data-name="opacity" d="M18 12a5 5 0 0 1-5-5v38a5 5 0 0 0 5 5V12z"
    fill="#000064" opacity=".15"></path>
    <path data-name="stroke" d="M41 50h10V12H18a5 5 0 0 1 0-10h29v10"
    fill="none" stroke="#2e4369" stroke-linecap="round" stroke-miterlimit="10"
    stroke-width="2" stroke-linejoin="round" style="stroke:var(--stroke, #2e4369)"></path>
    <path data-name="stroke" d="M13 7v38a5 5 0 0 0 5 5h7m8-15.2V62m6-6.2L33 62l-6-6.2"
    fill="none" stroke="#2e4369" stroke-linecap="round" stroke-miterlimit="10"
    stroke-width="2" stroke-linejoin="round" style="stroke:var(--stroke, #2e4369)"></path>
  </symbol>
  <symbol xmlns="http://www.w3.org/2000/svg" viewBox="0 0 64 64" id="download-ebook-1">
    <title>Download E-Book</title>
    <desc>A color styled icon from Orion Icon Library.</desc>
    <path data-name="layer3"
    d="M41 18H10a8 8 0 0 1 0-16h31z" fill="#fff" style="fill:var(--layer3, #fff)"></path>
    <path data-name="opacity" d="M10 2a8 8 0 0 0-7.7 10A8 8 0 0 1 10 6h31V2z"
    fill="#000064" opacity=".15"></path>
    <circle data-name="layer2" cx="46" cy="46" r="16" fill="#49bcff"
    style="fill:var(--layer2, #49bcff)"></circle>
    <path data-name="opacity" d="M46 30a16 16 0 0 0-12.5 6A16 16 0 0 1 56 58.5 16 16 0 0 0 46 30z"
    fill="#fff" opacity=".25" style="fill:var(--layer3, #fff)"></path>
    <path data-name="layer1" d="M42 30.5V18H10a8 8 0 0 1-8-8v38a8 8 0 0 0 8 8h23.5A16 16 0 0 1 42 30.5z"
    fill="#9cf" style="fill:var(--layer1, #9cf)"></path>
    <path data-name="opacity" d="M33.5 56A15.9 15.9 0 0 1 37 32.8 16 16 0 0 0 28.2 56h5.4zM2 10v38a8 8 0 0 0 7 7.9v-38A8 8 0 0 1 2 10z"
    fill="#000064" opacity=".15"></path>
    <path data-name="stroke" fill="none" stroke="#2e4369" stroke-linecap="round"
    stroke-miterlimit="10" stroke-width="2" d="M10 10h30m-6.5 46H10a8 8 0 0 1-8-8V10"
    stroke-linejoin="round" style="stroke:var(--stroke, #2e4369)"></path>
    <path data-name="stroke" d="M42 30.1V18H10a8 8 0 0 1 0-16h31v16m21 28a16 16 0 1 1-16-16 16 16 0 0 1 16 16zm-16-8v16"
    fill="none" stroke="#2e4369" stroke-linecap="round" stroke-miterlimit="10"
    stroke-width="2" stroke-linejoin="round" style="stroke:var(--stroke, #2e4369)"></path>
    <path data-name="stroke" fill="none" stroke="#2e4369" stroke-linecap="round"
    stroke-miterlimit="10" stroke-width="2" d="M52 48l-6 6-6-6" stroke-linejoin="round"
    style="stroke:var(--stroke, #2e4369)"></path>
  </symbol>
  <symbol xmlns="http://www.w3.org/2000/svg" viewBox="0 0 64 64" id="store-1">
    <title>Store</title>
    <desc>A color styled icon from Orion Icon Library.</desc>
    <path data-name="layer3"
    d="M47 22.5a7.5 7.5 0 0 1-15 0 7.5 7.5 0 0 1-15 0A7.5 7.5 0 0 1 9.5 30L8 29.8V58h48V29.9h-1.5a7.5 7.5 0 0 1-7.5-7.4z"
    fill="#e0eafc" style="fill:var(--layer3, #e0eafc)"></path>
    <path data-name="layer2" d="M52.6 6H11.4L2 22.5a7.5 7.5 0 0 0 15 0 7.5 7.5 0 0 0 15 0 7.5 7.5 0 0 0 15 0 7.5 7.5 0 0 0 15 0z"
    fill="#f27e7c" style="fill:var(--layer2, #f27e7c)"></path>
    <path data-name="layer1" fill="#8fa9d8" d="M36 36h12v22H36zm-20 0h14v12H16z"
    style="fill:var(--layer1, #8fa9d8)"></path>
    <path d="M2.3 22l-.3.5a7.5 7.5 0 0 0 15 0 7.5 7.5 0 0 0 15 0 7.5 7.5 0 0 0 15 0 7.5 7.5 0 0 0 15 0l-.3-.5z"
    opacity=".15"></path>
    <path data-name="opacity" d="M54.5 30a7.5 7.5 0 0 1-7.5-7.5 7.5 7.5 0 0 1-15 0 7.5 7.5 0 0 1-15 0A7.5 7.5 0 0 1 9.5 30L8 29.8V35h48v-5.1z"
    opacity=".15"></path>
    <path data-name="stroke" fill="none" stroke="#2e4369" stroke-linecap="round"
    stroke-linejoin="round" stroke-width="2" d="M36 36h12v22H36z" style="stroke:var(--stroke, #2e4369)"></path>
    <path data-name="stroke" fill="none" stroke="#2e4369" stroke-linecap="round"
    stroke-linejoin="round" stroke-width="2" d="M56 30v28H8V30" style="stroke:var(--stroke, #2e4369)"></path>
    <path data-name="stroke" fill="none" stroke="#2e4369" stroke-linecap="round"
    stroke-linejoin="round" stroke-width="2" d="M16 36h14v12H16zM52.6 6H11.4L2 22.5a7.5 7.5 0 0 0 15 0 7.5 7.5 0 0 0 15 0 7.5 7.5 0 0 0 15 0 7.5 7.5 0 0 0 15 0zM2 22h60M32 6v16.5m-15 0L22 6m25 16.5L42 6"
    style="stroke:var(--stroke, #2e4369)"></path>
  </symbol>
  <symbol xmlns="http://www.w3.org/2000/svg" viewBox="0 0 64 64" id="currency-1">
    <title>Currency</title>
    <desc>A color styled icon from Orion Icon Library.</desc>
    <path data-name="layer2"
    fill="#9cc4a4" d="M54 39h8V3H2v36h52z" style="fill:var(--layer2, #9cc4a4)"></path>
    <circle data-name="opacity" cx="32" cy="21" r="8" fill="#000064"
    opacity=".15"></circle>
    <path data-name="layer1" d="M42 29c-6.6 0-12 1.8-12 4v24c0 2.2 5.4 4 12 4s12-1.8 12-4V33c0-2.2-5.4-4-12-4z"
    fill="#fc6" style="fill:var(--layer1, #fc6)"></path>
    <path data-name="opacity" d="M12 3H2v10A9.7 9.7 0 0 0 12 3zM2 29v10h10A9.7 9.7 0 0 0 2 29zM52 3a9.7 9.7 0 0 0 10 10V3z"
    fill="#fff" opacity=".25"></path>
    <ellipse data-name="opacity" cx="42" cy="33" rx="12" ry="4" fill="#fff"
    opacity=".25"></ellipse>
    <path data-name="opacity" d="M30 33h-5v6h5v18c0 1.9 3.8 3.4 9 3.9v-24c-5.2-.5-9-2-9-3.9z"
    fill="#000064" opacity=".15"></path>
    <ellipse data-name="stroke" cx="42" cy="33" rx="12" ry="4" fill="none"
    stroke="#2e4369" stroke-linecap="round" stroke-linejoin="round" stroke-width="2"
    style="stroke:var(--stroke, #2e4369)"></ellipse>
    <path data-name="stroke" d="M54 41c0 2.2-5.4 4-12 4s-12-1.8-12-4m24 8c0 2.2-5.4 4-12 4s-12-1.8-12-4m0-10H2V3h60v36h-8"
    fill="none" stroke="#2e4369" stroke-linecap="round" stroke-linejoin="round"
    stroke-width="2" style="stroke:var(--stroke, #2e4369)"></path>
    <circle data-name="stroke" cx="32" cy="21" r="8" fill="none" stroke="#2e4369"
    stroke-linecap="round" stroke-linejoin="round" stroke-width="2" style="stroke:var(--stroke, #2e4369)"></circle>
    <path data-name="stroke" fill="none" stroke="#2e4369" stroke-linecap="round"
    stroke-linejoin="round" stroke-width="2" d="M12 21h4m32 0h4M12 3A10 10 0 0 1 2 13m60 0A10 10 0 0 1 52 3M2 29a10 10 0 0 1 10 10m18-6v24c0 2.2 5.4 4 12 4s12-1.8 12-4V33"
    style="stroke:var(--stroke, #2e4369)"></path>
  </symbol>
</svg>