<?xml version="1.0" encoding="iso-8859-1"?>
<!-- Generator: Adobe Illustrator 19.0.0, SVG Export Plug-In . SVG Version: 6.00 Build 0)  -->
<svg version="1.1" id="Capa_1" xmlns="http://www.w3.org/2000/svg" xmlns:xlink="http://www.w3.org/1999/xlink" x="0px" y="0px"
	 viewBox="0 0 513.067 513.067" style="enable-background:new 0 0 513.067 513.067;" xml:space="preserve">
<path style="fill:#FFD15C;" d="M460.8,341.867l1.067,23.467v51.2L373.333,424c0,0-3.2-13.867-6.4-20.267
	c-3.2-6.4-8.533-4.267-18.133-7.467c-10.667-3.2-22.4-3.2-22.4-19.2c0,0,0-4.267-5.333-7.467c-5.333-3.2-6.4-7.467-3.2-9.6
	c0,0-4.267-2.133-1.067-9.6c3.2-7.467,1.067-10.667,1.067-10.667s-16-2.133-13.867-10.667c2.133-8.533,17.067-23.467,18.133-26.667
	s1.067-4.267,0-9.6c-1.067-5.333,5.333-28.8,16-42.667c10.667-13.867,25.6-12.8,25.6-12.8S456.533,304.533,460.8,341.867"/>
<path style="fill:#F7B64C;" d="M419.2,357.867c-22.4,21.333-57.6,32-75.733,36.267c1.067,0,3.2,1.067,4.267,1.067
	c10.667,3.2,14.933,2.133,18.133,7.467c2.133,4.267,4.267,12.8,5.333,17.067C398.933,396.267,419.2,357.867,419.2,357.867z"/>
<path style="fill:#415A6B;" d="M334.933,250.133c0,0-12.8-13.867-2.133-28.8c24.533-33.067,97.067-29.867,119.467-9.6
	s32,60.8,29.867,76.8c-2.133,16-21.333,76.8-21.333,76.8s-26.667-4.267-33.067-28.8c-6.4-24.533-23.467-26.667-34.133-20.267
	c-10.667,5.333-12.8,21.333-12.8,21.333l-6.4-2.133c0,0,5.333-21.333,1.067-32S364.8,293.867,364.8,280
	S348.8,249.067,334.933,250.133z"/>
<ellipse transform="matrix(0.3351 -0.9422 0.9422 0.3351 -34.7981 602.6675)" style="fill:#FFD15C;" cx="409.597" cy="325.989" rx="22.4" ry="13.867"/>
<path style="fill:#F3F3F3;" d="M460.8,366.4c0,0-19.2,5.333-50.133,22.4c-32,17.067-48,27.733-48,27.733l14.933,35.2l88.533-68.267
	L460.8,366.4z"/>
<path style="fill:#344A5E;" d="M513.067,512.533C505.6,457.067,486.4,385.6,472.533,386.667c0,0-5.333-13.867-9.6-12.8
	c0,0-12.8,5.333-28.8,13.867c-17.067,7.467-52.267,39.467-59.733,53.333c-5.333,9.6-24.533,40.533-42.667,71.467H513.067z"/>
<path style="fill:#415A6B;" d="M473.6,512.533c2.133-7.467,3.2-14.933,4.267-21.333c1.067-18.133-8.533-68.267-53.333-66.133
	c-45.867,3.2-60.8,49.067-60.8,49.067s-7.467,25.6-21.333,28.8c-4.267,1.067-5.333,4.267-9.6,8.533h140.8V512.533z"/>
<path style="fill:#FFD15C;" d="M231.467,214.933c0,0,12.8,6.4,14.933,12.8c2.133,6.4,8.533,23.467,7.467,30.933
	c-1.067,8.533-4.267,9.6-2.133,16c1.067,6.4,12.8,21.333,12.8,21.333s4.267,7.467-3.2,9.6c-7.467,3.2-9.6,3.2-9.6,3.2
	s0,5.333,2.133,7.467c2.133,2.133,1.067,7.467-3.2,6.4c0,0,5.333,5.333,2.133,9.6s-4.267,9.6-3.2,12.8
	c1.067,3.2-2.133,17.067-20.267,18.133c-18.133,1.067-24.533,2.133-24.533,2.133l-42.667,67.2l-59.733-86.4l5.333-28.8
	l27.733-77.867C134.4,237.333,216.533,216,231.467,214.933z"/>
<path style="fill:#F7B64C;" d="M202.667,364.267c0,0-33.067-18.133-50.133-41.6c0,0,11.733,40.533,28.8,74.667L202.667,364.267z"/>
<path style="fill:#344A5E;" d="M106.667,315.2c0,0,19.2,5.333,28.8-3.2s2.133-29.867,14.933-38.4c12.8-8.533,32,1.067,33.067,13.867
	c1.067,12.8-2.133,21.333-2.133,21.333h18.133c0,0-3.2-37.333,2.133-43.733c4.267-6.4,11.733-7.467,11.733-17.067
	c0-9.6-2.133-23.467,7.467-27.733c9.6-4.267,25.6,3.2,26.667,6.4c0,0,1.067-17.067-16-33.067s-60.8-25.6-89.6-17.067
	s-40.533,46.933-41.6,61.867C98.133,254.4,107.733,306.667,106.667,315.2z"/>
<ellipse transform="matrix(-0.1613 -0.9869 0.9869 -0.1613 -96.9278 490.4185)" style="fill:#FFD15C;" cx="159.922" cy="286.395" rx="24.533" ry="17.067"/>
<path style="fill:#F3F3F3;" d="M106.667,315.2c0,0,30.933,26.667,39.467,34.133c8.533,7.467,42.667,40.533,44.8,50.133
	c0,0-18.133,25.6-25.6,30.933c0,0-41.6-68.267-49.067-78.933C107.733,340.8,98.133,331.2,106.667,315.2z"/>
<path style="fill:#344A5E;" d="M212.267,512.533c-16-37.333-32-73.6-32-74.667c0-2.133-34.133-45.867-34.133-45.867l-57.6-51.2
	c0,0-24.533,27.733-37.333,49.067c-12.8,21.333-30.933,41.6-40.533,71.467C6.4,475.2,3.2,494.4,0,512.533H212.267z"/>
<path style="fill:#415A6B;" d="M155.733,424l17.067,6.4c0,0-1.067,6.4,2.133,18.133c2.133,8.533,17.067,40.533,28.8,64h22.4
	c-32-94.933-72.533-151.467-119.467-197.333c-4.267,7.467-9.6,14.933-16,20.267c-2.133,2.133-2.133,6.4,1.067,8.533
	C121.6,371.733,155.733,424,155.733,424z"/>
<path style="fill:#4ABAA5;" d="M275.2,92.267c0,32,29.867,58.667,68.267,60.8l52.267,27.733v-40.533
	c18.133-10.667,28.8-28.8,28.8-48c0-34.133-34.133-61.867-74.667-61.867C308.267,31.467,275.2,58.133,275.2,92.267z"/>
<path style="fill:#F3705A;" d="M376.533,72c0,37.333-35.2,68.267-78.933,70.4l-60.8,32v-45.867
	c-20.267-12.8-33.067-33.067-33.067-56.533c-1.067-39.467,38.4-71.467,86.4-71.467S376.533,32.533,376.533,72z"/>
<g>
</g>
<g>
</g>
<g>
</g>
<g>
</g>
<g>
</g>
<g>
</g>
<g>
</g>
<g>
</g>
<g>
</g>
<g>
</g>
<g>
</g>
<g>
</g>
<g>
</g>
<g>
</g>
<g>
</g>
</svg>
