<?xml version="1.0" encoding="iso-8859-1"?>
<!-- Generator: Adobe Illustrator 19.0.0, SVG Export Plug-In . SVG Version: 6.00 Build 0)  -->
<svg version="1.1" id="Capa_1" xmlns="http://www.w3.org/2000/svg" xmlns:xlink="http://www.w3.org/1999/xlink" x="0px" y="0px"
	 viewBox="0 0 513.067 513.067" style="enable-background:new 0 0 513.067 513.067;" xml:space="preserve">
<path style="fill:#66C6B9;" d="M237.867,466.667c0-2.133,0-4.267,0-5.333c2.133-14.933-4.267-61.867,16-71.467
	c7.467,25.6,12.8,51.2,17.067,75.733h-33.067V466.667z"/>
<path style="fill:#F3705A;" d="M409.6,240.533c0,30.933-1.067,61.867-1.067,92.8c0,10.667,0,22.4-7.467,30.933
	c-6.4,8.533-19.2,11.733-29.867,13.867c-11.733,2.133-24.533,3.2-37.333,3.2c-5.333,0-10.667,0-14.933-2.133
	c-7.467-3.2-11.733-9.6-14.933-17.067c-3.2-7.467-3.2-14.933-3.2-23.467c0-10.667-1.067-21.333,0-32
	c1.067-10.667,5.333-21.333,11.733-28.8c7.467-8.533,18.133-14.933,28.8-18.133c10.667-3.2,22.4-4.267,34.133-5.333"/>
<path style="fill:#FFD15C;" d="M416,365.333l-13.867-22.4c0,0-7.467-5.333-8.533-12.8s0-13.867,0-13.867s9.6-27.733,6.4-70.4
	L370.133,200l-39.467-8.533L296.533,248c0,0-1.067,52.267,25.6,80c0,0,5.333,18.133,4.267,21.333l-13.867,19.2l-7.467,42.667
	l36.267,18.133C341.333,429.333,402.133,401.6,416,365.333z"/>
<path style="fill:#F7B64C;" d="M409.6,362.133l-5.333-17.067l-2.133-3.2c0,0-7.467-5.333-8.533-12.8s0-13.867,0-13.867
	C352,370.667,321.067,328,321.067,328C358.4,386.667,409.6,362.133,409.6,362.133z"/>
<path style="fill:#E8EAE9;" d="M291.2,466.667C295.467,420.8,302.933,376,312.533,369.6c0,0-2.133,24.533,6.4,36.267
	c7.467,11.733,64-13.867,77.867-44.8l18.133,2.133l-26.667,103.467H291.2z"/>
<g>
	<path style="fill:#66C6B9;" d="M445.867,466.667l-6.4-57.6c0-1.067,49.067-30.933,49.067-30.933s11.733,3.2,14.933,17.067
		c2.133,8.533,6.4,41.6,9.6,71.467C513.067,466.667,445.867,466.667,445.867,466.667z"/>
	<path style="fill:#66C6B9;" d="M458.667,466.667h-108.8c5.333-17.067,11.733-33.067,19.2-46.933
		c14.933-29.867,33.067-76.8,33.067-76.8c4.267,2.133,24.533,10.667,32,13.867c23.467,7.467,54.4,22.4,54.4,22.4
		C465.067,389.867,459.733,435.733,458.667,466.667z"/>
	<path style="fill:#66C6B9;" d="M254.933,466.667c0-1.067,0-2.133-1.067-3.2c-6.4-33.067,0-72.533,0-72.533
		S296.533,370.667,304,366.4s22.4-14.933,22.4-14.933c-9.6,17.067-26.667,69.333-30.933,116.267h-40.533L254.933,466.667
		L254.933,466.667z"/>
</g>
<g>
	<path style="fill:#F3705A;" d="M352,209.6c0,0,8.533,0,25.6,17.067c18.133,17.067,23.467,27.733,24.533,36.267
		S393.6,331.2,393.6,331.2c8.533,29.867,17.067,56.533,53.333,82.133c0,0-21.333-72.533-27.733-97.067s6.4-45.867-6.4-89.6
		C400,182.933,372.267,168,341.333,171.2s-48,30.933-51.2,49.067c-3.2,17.067-1.067,80,3.2,93.867
		C297.6,328,307.2,393.067,307.2,393.067l-2.133-92.8c0,0-6.4-19.2-2.133-32c5.333-12.8,1.067-37.333,10.667-45.867
		C323.2,211.733,338.133,206.4,352,209.6z"/>
	<path style="fill:#F3705A;" d="M291.2,302.4c0,0,5.333,57.6-2.133,90.667C280.533,426.133,275.2,433.6,275.2,433.6
		s34.133-12.8,39.467-48c5.333-35.2,0-46.933,0-46.933"/>
	<path style="fill:#F3705A;" d="M327.467,399.467c-5.333,10.667-12.8,20.267-18.133,30.933s-8.533,23.467-4.267,35.2
		c-9.6-7.467-12.8-22.4-10.667-35.2c2.133-12.8,7.467-24.533,10.667-37.333c4.267-18.133,3.2-36.267,2.133-54.4L322.133,328
		C337.067,348.267,338.133,376,327.467,399.467z"/>
	<path style="fill:#F3705A;" d="M393.6,315.2c-3.2,13.867-1.067,37.333,4.267,51.2c4.267,10.667,10.667,21.333,14.933,32
		c3.2,11.733,3.2,23.467-1.067,35.2c6.4-2.133,11.733-9.6,11.733-17.067c1.067-7.467-1.067-14.933-4.267-21.333
		c-3.2-6.4-6.4-12.8-9.6-20.267c-7.467-17.067-6.4-37.333,1.067-54.4"/>
	<path style="fill:#F3705A;" d="M395.733,313.067c-6.4,13.867-5.333,30.933-2.133,45.867c3.2,14.933,9.6,29.867,12.8,45.867
		c3.2,18.133,0,37.333-7.467,54.4c19.2-12.8,28.8-37.333,24.533-59.733c-2.133-9.6-6.4-19.2-9.6-28.8
		c-5.333-16-7.467-33.067-6.4-50.133"/>
</g>
<path style="fill:#CED6E0;" d="M82.133,512.533V440c0-19.2,16-35.2,35.2-35.2h76.8c19.2,0,35.2,16,35.2,35.2v72.533H82.133z"/>
<g>
	<polygon style="fill:#F3705A;" points="136.533,512.533 144,442.133 168.533,442.133 176,512.533 	"/>
	<polygon style="fill:#F3705A;" points="144,442.133 131.2,429.333 155.733,404.8 181.333,429.333 168.533,442.133 	"/>
</g>
<path style="fill:#344A5E;" d="M0,512.533l17.067-74.667c3.2-11.733,11.733-20.267,23.467-22.4l60.8-11.733l22.4,108.8H0z"/>
<path style="fill:#F3F3F3;" d="M118.4,379.2c0,0,0,4.267,17.067,13.867s20.267,11.733,20.267,11.733l-35.2,35.2
	c0,0-13.867-34.133-13.867-35.2S117.333,386.667,118.4,379.2z"/>
<path style="fill:#415A6B;" d="M102.4,512.533c-9.6-26.667-25.6-76.8-25.6-76.8l18.133-9.6L83.2,421.867c0,0,9.6-14.933,19.2-20.267
	c8.533-5.333,8.533-11.733,13.867-14.933c0,0,1.067,17.067,3.2,26.667s13.867,75.733,17.067,96c0,1.067,0,2.133,0,3.2
	C136.533,512.533,102.4,512.533,102.4,512.533z"/>
<path style="fill:#344A5E;" d="M187.733,512.533l22.4-109.867l60.8,11.733c11.733,2.133,21.333,11.733,23.467,22.4l17.067,74.667
	H187.733V512.533z"/>
<path style="fill:#F3F3F3;" d="M194.133,379.2c0,0,0,4.267-17.067,13.867S156.8,404.8,156.8,404.8L192,440
	c0,0,13.867-34.133,13.867-35.2S195.2,386.667,194.133,379.2z"/>
<path style="fill:#415A6B;" d="M210.133,512.533H176c0-1.067,0-2.133,0-3.2c3.2-20.267,14.933-85.333,17.067-96
	c2.133-9.6,3.2-26.667,3.2-26.667c5.333,3.2,5.333,10.667,13.867,14.933c8.533,5.333,19.2,20.267,19.2,20.267l-11.733,4.267
	l18.133,9.6C234.667,435.733,219.733,485.867,210.133,512.533z"/>
<path style="fill:#F7B64C;" d="M194.133,323.733V379.2c0,0,0,4.267-17.067,13.867S156.8,404.8,156.8,404.8s-3.2-2.133-20.267-11.733
	S119.467,379.2,119.467,379.2v-55.467H194.133z"/>
<g>
	<path style="fill:#FFD15C;" d="M114.133,269.333c0-5.333,1.067-10.667,5.333-14.933c3.2-4.267,6.4-7.467,11.733-8.533
		c4.267-1.067,8.533-2.133,12.8-2.133c8.533-1.067,17.067-1.067,25.6,1.067c0,0,0,0,1.067,0c5.333-2.133,11.733-4.267,18.133-4.267
		c7.467,0,12.8,3.2,17.067,9.6c3.2,5.333,4.267,11.733,3.2,17.067c-1.067,5.333-2.133,10.667-4.267,16
		c3.2,9.6,5.333,20.267,5.333,30.933c0,38.4-24.533,69.333-54.4,69.333s-54.4-30.933-54.4-69.333
		C101.333,298.133,105.6,282.133,114.133,269.333z"/>
	
		<ellipse transform="matrix(0.9894 -0.1455 0.1455 0.9894 -44.7966 18.5379)" style="fill:#FFD15C;" cx="104.337" cy="315.524" rx="9.6" ry="20.268"/>
	
		<ellipse transform="matrix(-0.9894 -0.1455 0.1455 -0.9894 370.0724 657.4659)" style="fill:#FFD15C;" cx="209.078" cy="315.2" rx="9.6" ry="20.268"/>
</g>
<path style="fill:#415A6B;" d="M205.867,329.067l-3.2-1.067c0,0,5.333-10.667,0-24.533c-4.267-13.867-5.333-18.133-4.267-26.667
	c1.067-7.467,3.2-21.333-12.8-24.533c-14.933-2.133-48-1.067-58.667,0s-14.933,16-13.867,22.4c2.133,6.4-2.133,18.133-3.2,25.6
	s0,25.6,0,25.6l-2.133-1.067c0,0,0-12.8-3.2-20.267c-3.2-7.467-5.333-16-5.333-33.067c0-21.333,6.4-27.733,6.4-27.733
	s-8.533-23.467,20.267-34.133c27.733-10.667,43.733-3.2,59.733,4.267c16,7.467,27.733,24.533,30.933,34.133
	c3.2,9.6-1.067,50.133-5.333,56.533C209.067,310.933,205.867,329.067,205.867,329.067z"/>
<path style="fill:#8AD7F8;" d="M275.2,21.867V139.2c0,11.733-9.6,21.333-21.333,21.333h-8.533V216l-76.8-55.467H58.667
	c-11.733,0-21.333-9.6-21.333-21.333V21.867c0-11.733,9.6-21.333,21.333-21.333h195.2C265.6,0.533,275.2,10.133,275.2,21.867z"/>
<g>
	<circle style="fill:#FFFFFF;" cx="88.533" cy="80.533" r="21.333"/>
	<circle style="fill:#FFFFFF;" cx="155.733" cy="80.533" r="21.333"/>
	<circle style="fill:#FFFFFF;" cx="224" cy="80.533" r="21.333"/>
</g>
<g>
</g>
<g>
</g>
<g>
</g>
<g>
</g>
<g>
</g>
<g>
</g>
<g>
</g>
<g>
</g>
<g>
</g>
<g>
</g>
<g>
</g>
<g>
</g>
<g>
</g>
<g>
</g>
<g>
</g>
</svg>
